%!PS-Adobe-3.0 EPSF-3.0 
%%BoundingBox: 0 0 343 218
%%Pages: 0
%%Creator: LibreOffice 6.0
%%Title: none
%%CreationDate: none
%%LanguageLevel: 1
%%EndComments
%%BeginProlog
%%BeginResource: procset SDRes-Prolog 1.0 0
/b4_inc_state save def
/dict_count countdictstack def
/op_count count 1 sub def
userdict begin
0 setgray 0 setlinecap 1 setlinewidth 0 setlinejoin 10 setmiterlimit[] 0 setdash newpath
/languagelevel where {pop languagelevel 1 ne {false setstrokeadjust false setoverprint} if} if
/bdef {bind def} bind def
/c {setgray} bdef
/l {neg lineto} bdef
/rl {neg rlineto} bdef
/lc {setlinecap} bdef
/lj {setlinejoin} bdef
/lw {setlinewidth} bdef
/ml {setmiterlimit} bdef
/ld {setdash} bdef
/m {neg moveto} bdef
/ct {6 2 roll neg 6 2 roll neg 6 2 roll neg curveto} bdef
/r {rotate} bdef
/t {neg translate} bdef
/s {scale} bdef
/sw {show} bdef
/gs {gsave} bdef
/gr {grestore} bdef
/f {findfont dup length dict begin
{1 index /FID ne {def} {pop pop} ifelse} forall /Encoding ISOLatin1Encoding def
currentdict end /NFont exch definefont pop /NFont findfont} bdef
/p {closepath} bdef
/sf {scalefont setfont} bdef
/ef {eofill}bdef
/pc {closepath stroke}bdef
/ps {stroke}bdef
/pum {matrix currentmatrix}bdef
/pom {setmatrix}bdef
/bs {/aString exch def /nXOfs exch def /nWidth exch def currentpoint nXOfs 0 rmoveto pum nWidth aString stringwidth pop div 1 scale aString show pom moveto} bdef
%%EndResource
%%EndProlog
%%BeginSetup
%%EndSetup
%%Page: 1 1
%%BeginPageSetup
%%EndPageSetup
pum
0.02833 0.02838 s 
0 -7680 t
/tm matrix currentmatrix def
tm setmatrix
-2199 -5597 t 
1 1 s 
gs
0.898 c 2200 5597 m  5576 5597 l  5576 9495 l  2200 9495 l  2200 5597 l 
p ef
gr
pum
2731 7741 t
0.000 c 161 0 m  4 -412 l  63 -412 l  193 -65 l  323 -412 l  381 -412 l 
224 0 l  161 0 l  p ef
660 -167 m  660 -142 l  427 -142 l  429 -107 440 -81 459 -62 ct 477 -44 504 -35 537 -35 ct 
557 -35 575 -37 594 -42 ct 612 -47 630 -54 648 -64 ct 648 -16 l  630 -8 611 -2 592 2 ct 
573 6 554 8 534 8 ct 485 8 446 -6 417 -35 ct 388 -64 374 -102 374 -151 ct 374 -202 388 -242 415 -271 ct 
442 -301 479 -316 525 -316 ct 567 -316 600 -303 624 -276 ct 648 -249 660 -213 660 -167 ct 
p
609 -181 m  609 -209 601 -231 586 -248 ct 571 -265 551 -273 526 -273 ct 498 -273 475 -265 458 -249 ct 
441 -233 431 -210 429 -181 ct 609 -181 l  p ef
940 -299 m  940 -252 l  925 -259 911 -264 895 -268 ct 880 -272 864 -274 847 -274 ct 
822 -274 803 -270 791 -262 ct 778 -254 772 -243 772 -227 ct 772 -216 776 -206 785 -200 ct 
794 -193 812 -187 840 -180 ct 857 -177 l  893 -169 918 -158 934 -144 ct 949 -130 956 -110 956 -85 ct 
956 -56 945 -34 922 -17 ct 900 0 868 8 829 8 ct 812 8 795 6 777 3 ct 759 0 740 -5 721 -11 ct 
721 -64 l  739 -54 758 -47 776 -42 ct 794 -37 812 -34 830 -34 ct 854 -34 872 -39 885 -47 ct 
898 -55 904 -66 904 -81 ct 904 -95 900 -106 890 -113 ct 881 -120 861 -127 829 -134 ct 
812 -138 l  780 -145 758 -155 744 -169 ct 730 -182 723 -201 723 -225 ct 723 -254 733 -277 754 -292 ct 
774 -308 803 -316 841 -316 ct 860 -316 878 -315 894 -312 ct 911 -309 926 -305 940 -299 ct 
p ef
1232 -299 m  1232 -252 l  1217 -259 1203 -264 1187 -268 ct 1172 -272 1156 -274 1139 -274 ct 
1114 -274 1095 -270 1083 -262 ct 1070 -254 1064 -243 1064 -227 ct 1064 -216 1068 -206 1077 -200 ct 
1086 -193 1104 -187 1132 -180 ct 1149 -177 l  1185 -169 1210 -158 1226 -144 ct 
1241 -130 1248 -110 1248 -85 ct 1248 -56 1237 -34 1214 -17 ct 1192 0 1160 8 1121 8 ct 
1104 8 1087 6 1069 3 ct 1051 0 1032 -5 1013 -11 ct 1013 -64 l  1031 -54 1050 -47 1068 -42 ct 
1086 -37 1104 -34 1122 -34 ct 1146 -34 1164 -39 1177 -47 ct 1190 -55 1196 -66 1196 -81 ct 
1196 -95 1192 -106 1182 -113 ct 1173 -120 1153 -127 1121 -134 ct 1104 -138 l 
1072 -145 1050 -155 1036 -169 ct 1022 -182 1015 -201 1015 -225 ct 1015 -254 1025 -277 1046 -292 ct 
1066 -308 1095 -316 1133 -316 ct 1152 -316 1170 -315 1186 -312 ct 1203 -309 1218 -305 1232 -299 ct 
p ef
1591 -167 m  1591 -142 l  1358 -142 l  1360 -107 1371 -81 1390 -62 ct 1408 -44 1435 -35 1468 -35 ct 
1488 -35 1506 -37 1525 -42 ct 1543 -47 1561 -54 1579 -64 ct 1579 -16 l  1561 -8 1542 -2 1523 2 ct 
1504 6 1485 8 1465 8 ct 1416 8 1377 -6 1348 -35 ct 1319 -64 1305 -102 1305 -151 ct 
1305 -202 1319 -242 1346 -271 ct 1373 -301 1410 -316 1456 -316 ct 1498 -316 1531 -303 1555 -276 ct 
1579 -249 1591 -213 1591 -167 ct p
1540 -181 m  1540 -209 1532 -231 1517 -248 ct 1502 -265 1482 -273 1457 -273 ct 
1429 -273 1406 -265 1389 -249 ct 1372 -233 1362 -210 1360 -181 ct 1540 -181 l 
p ef
1674 -429 m  1725 -429 l  1725 0 l  1674 0 l  1674 -429 l  p ef
2135 -375 m  2107 -375 2085 -361 2071 -333 ct 2056 -304 2049 -262 2049 -205 ct 
2049 -149 2056 -107 2071 -78 ct 2085 -50 2107 -36 2135 -36 ct 2164 -36 2186 -50 2200 -78 ct 
2215 -107 2222 -149 2222 -205 ct 2222 -262 2215 -304 2200 -333 ct 2186 -361 2164 -375 2135 -375 ct 
p
2135 -419 m  2181 -419 2217 -401 2241 -364 ct 2265 -328 2277 -275 2277 -205 ct 
2277 -136 2265 -83 2241 -47 ct 2217 -10 2181 8 2135 8 ct 2089 8 2054 -10 2030 -47 ct 
2005 -83 1993 -136 1993 -205 ct 1993 -275 2005 -328 2030 -364 ct 2054 -401 2089 -419 2135 -419 ct 
p ef
pom
gs
0.898 c 5576 5597 m  9320 5597 l  9320 6756 l  5576 6756 l  5576 5597 l 
p ef
gr
pum
5826 6372 t
52 -412 m  228 -412 l  280 -412 320 -400 348 -377 ct 376 -354 390 -321 390 -278 ct 
390 -234 376 -201 348 -178 ct 320 -155 280 -143 228 -143 ct 158 -143 l  158 -1 l 
52 -1 l  52 -412 l  p
158 -335 m  158 -220 l  216 -220 l  237 -220 253 -225 264 -235 ct 275 -245 281 -259 281 -278 ct 
281 -296 275 -310 264 -320 ct 253 -330 237 -335 216 -335 ct 158 -335 l  p ef
605 -245 m  583 -245 567 -238 555 -222 ct 544 -206 538 -184 538 -154 ct 538 -124 544 -102 555 -86 ct 
567 -70 583 -63 605 -63 ct 627 -63 643 -70 654 -86 ct 666 -102 672 -124 672 -154 ct 
672 -184 666 -206 654 -222 ct 643 -238 627 -245 605 -245 ct p
605 -316 m  658 -316 700 -302 729 -273 ct 759 -244 774 -205 774 -154 ct 774 -103 759 -64 729 -35 ct 
700 -6 658 8 605 8 ct 552 8 510 -6 480 -35 ct 450 -64 435 -103 435 -154 ct 435 -205 450 -244 480 -273 ct 
510 -302 552 -316 605 -316 ct p ef
1073 -224 m  1064 -228 1055 -231 1047 -233 ct 1038 -235 1030 -236 1021 -236 ct 
996 -236 976 -228 962 -212 ct 949 -195 942 -172 942 -142 ct 942 0 l  843 0 l 
843 -309 l  942 -309 l  942 -258 l  955 -278 969 -292 986 -301 ct 1002 -310 1022 -315 1045 -315 ct 
1048 -315 1052 -315 1055 -315 ct 1059 -315 1065 -315 1072 -314 ct 1073 -224 l 
p ef
1230 -396 m  1230 -309 l  1332 -309 l  1332 -238 l  1230 -238 l  1230 -107 l 
1230 -93 1233 -83 1239 -78 ct 1244 -73 1256 -71 1272 -71 ct 1323 -71 l  1323 0 l 
1239 0 l  1200 0 1172 -8 1156 -24 ct 1140 -41 1131 -68 1131 -107 ct 1131 -238 l 
1082 -238 l  1082 -309 l  1131 -309 l  1131 -396 l  1230 -396 l  p ef
pom
gs
0.898 c 9320 5597 m  11012 5597 l  11012 6756 l  9320 6756 l  9320 5597 l 
p ef
gr
pum
9893 6307 t
111 -365 m  111 -211 l  181 -211 l  207 -211 227 -217 241 -231 ct 255 -244 262 -263 262 -288 ct 
262 -313 255 -332 241 -345 ct 227 -359 207 -365 181 -365 ct 111 -365 l  p
55 -411 m  181 -411 l  227 -411 262 -401 285 -380 ct 309 -359 321 -328 321 -288 ct 
321 -248 309 -217 285 -196 ct 262 -175 227 -165 181 -165 ct 111 -165 l  111 1 l 
55 1 l  55 -411 l  p ef
pom
pum
10232 6493 t
41 -27 m  93 -27 l  93 -209 l  36 -197 l  36 -227 l  93 -238 l  125 -238 l 
125 -27 l  178 -27 l  178 0 l  41 0 l  41 -27 l  p ef
pom
gs
0.898 c 11012 5597 m  12674 5597 l  12674 6756 l  11012 6756 l  11012 5597 l 
p ef
gr
pum
11570 6307 t
111 -365 m  111 -211 l  181 -211 l  207 -211 227 -217 241 -231 ct 255 -244 262 -263 262 -288 ct 
262 -313 255 -332 241 -345 ct 227 -359 207 -365 181 -365 ct 111 -365 l  p
55 -411 m  181 -411 l  227 -411 262 -401 285 -380 ct 309 -359 321 -328 321 -288 ct 
321 -248 309 -217 285 -196 ct 262 -175 227 -165 181 -165 ct 111 -165 l  111 1 l 
55 1 l  55 -411 l  p ef
pom
pum
11909 6493 t
104 -216 m  87 -216 75 -208 67 -192 ct 58 -176 54 -151 54 -118 ct 54 -86 58 -61 67 -45 ct 
75 -29 87 -21 104 -21 ct 121 -21 133 -29 142 -45 ct 150 -61 154 -86 154 -118 ct 
154 -151 150 -176 142 -192 ct 133 -208 121 -216 104 -216 ct p
104 -242 m  131 -242 151 -231 165 -210 ct 179 -189 186 -159 186 -118 ct 186 -78 179 -48 165 -27 ct 
151 -6 131 5 104 5 ct 77 5 57 -6 43 -27 ct 29 -48 22 -78 22 -118 ct 22 -159 29 -189 43 -210 ct 
57 -231 77 -242 104 -242 ct p ef
pom
gs
0.898 c 12674 5597 m  14304 5597 l  14304 6756 l  12674 6756 l  12674 5597 l 
p ef
gr
pum
13216 6307 t
111 -365 m  111 -211 l  181 -211 l  207 -211 227 -217 241 -231 ct 255 -244 262 -263 262 -288 ct 
262 -313 255 -332 241 -345 ct 227 -359 207 -365 181 -365 ct 111 -365 l  p
55 -411 m  181 -411 l  227 -411 262 -401 285 -380 ct 309 -359 321 -328 321 -288 ct 
321 -248 309 -217 285 -196 ct 262 -175 227 -165 181 -165 ct 111 -165 l  111 1 l 
55 1 l  55 -411 l  p ef
pom
pum
13555 6493 t
133 -128 m  148 -125 160 -118 169 -107 ct 178 -97 182 -84 182 -69 ct 182 -45 174 -27 158 -14 ct 
141 -1 118 5 89 5 ct 79 5 68 4 58 2 ct 47 0 36 -3 25 -7 ct 25 -38 l  34 -33 44 -29 54 -26 ct 
65 -23 76 -22 88 -22 ct 108 -22 123 -26 134 -34 ct 144 -42 150 -54 150 -69 ct 150 -83 145 -94 135 -102 ct 
125 -110 111 -114 94 -114 ct 66 -114 l  66 -140 l  95 -140 l  111 -140 123 -143 132 -150 ct 
140 -156 144 -165 144 -177 ct 144 -189 140 -199 131 -205 ct 123 -212 110 -215 94 -215 ct 
85 -215 76 -214 65 -212 ct 55 -210 44 -207 32 -203 ct 32 -232 l  44 -235 56 -238 67 -240 ct 
77 -241 87 -242 97 -242 ct 121 -242 141 -237 155 -225 ct 169 -214 176 -199 176 -180 ct 
176 -167 173 -156 165 -147 ct 157 -138 147 -132 133 -128 ct p ef
pom
gs
0.796 c 5576 6756 m  9320 6756 l  9320 7669 l  5576 7669 l  5576 6756 l 
p ef
gr
pum
5826 7408 t
3 -411 m  382 -411 l  382 -331 l  245 -331 l  245 0 l  139 0 l  139 -331 l 
3 -331 l  3 -411 l  p ef
432 -309 m  531 -309 l  531 0 l  432 0 l  432 -309 l  p
432 -429 m  531 -429 l  531 -349 l  432 -349 l  432 -429 l  p ef
913 -257 m  926 -276 941 -291 958 -301 ct 975 -311 994 -316 1014 -316 ct 1050 -316 1077 -305 1095 -283 ct 
1114 -261 1123 -230 1123 -188 ct 1123 0 l  1024 0 l  1024 -161 l  1024 -163 1024 -166 1024 -168 ct 
1024 -171 1024 -175 1024 -179 ct 1024 -201 1021 -217 1015 -227 ct 1008 -237 998 -242 984 -242 ct 
965 -242 951 -234 940 -218 ct 930 -203 925 -181 925 -152 ct 925 0 l  825 0 l 
825 -161 l  825 -195 822 -217 817 -227 ct 811 -237 800 -242 785 -242 ct 766 -242 752 -234 741 -218 ct 
731 -203 726 -181 726 -152 ct 726 0 l  627 0 l  627 -309 l  726 -309 l  726 -263 l 
738 -281 752 -294 768 -303 ct 783 -312 801 -316 820 -316 ct 841 -316 860 -311 876 -301 ct 
892 -290 905 -276 913 -257 ct p ef
1523 -155 m  1523 -127 l  1293 -127 l  1295 -104 1303 -87 1318 -75 ct 1332 -63 1352 -58 1378 -58 ct 
1399 -58 1420 -61 1442 -67 ct 1463 -73 1486 -82 1509 -95 ct 1509 -19 l  1485 -10 1462 -3 1439 1 ct 
1415 6 1392 8 1369 8 ct 1313 8 1270 -6 1239 -35 ct 1208 -63 1192 -103 1192 -154 ct 
1192 -204 1207 -244 1238 -273 ct 1268 -302 1310 -316 1363 -316 ct 1412 -316 1451 -301 1480 -272 ct 
1509 -243 1523 -204 1523 -155 ct p
1422 -188 m  1422 -207 1416 -222 1406 -233 ct 1395 -245 1380 -250 1363 -250 ct 
1344 -250 1328 -245 1316 -234 ct 1304 -224 1297 -208 1294 -188 ct 1422 -188 l 
p ef
pom
gs
0.796 c 9320 6756 m  11012 6756 l  11012 7669 l  9320 7669 l  9320 6756 l 
p ef
gr
pum
9986 7408 t
70 -47 m  161 -47 l  161 -361 l  62 -341 l  62 -392 l  160 -412 l  216 -412 l 
216 -47 l  307 -47 l  307 0 l  70 0 l  70 -47 l  p ef
pom
gs
0.796 c 11012 6756 m  12674 6756 l  12674 7669 l  11012 7669 l  11012 6756 l 
p ef
gr
pum
11483 7408 t
70 -47 m  161 -47 l  161 -361 l  62 -341 l  62 -392 l  160 -412 l  216 -412 l 
216 -47 l  307 -47 l  307 0 l  70 0 l  70 -47 l  p ef
539 -375 m  511 -375 489 -361 475 -333 ct 460 -304 453 -262 453 -205 ct 453 -149 460 -107 475 -78 ct 
489 -50 511 -36 539 -36 ct 568 -36 590 -50 604 -78 ct 619 -107 626 -149 626 -205 ct 
626 -262 619 -304 604 -333 ct 590 -361 568 -375 539 -375 ct p
539 -419 m  585 -419 621 -401 645 -364 ct 669 -328 681 -275 681 -205 ct 681 -136 669 -83 645 -47 ct 
621 -10 585 8 539 8 ct 493 8 458 -10 434 -47 ct 409 -83 397 -136 397 -205 ct 397 -275 409 -328 434 -364 ct 
458 -401 493 -419 539 -419 ct p ef
pom
gs
0.796 c 12674 6756 m  14304 6756 l  14304 7669 l  12674 7669 l  12674 6756 l 
p ef
gr
pum
13129 7408 t
108 -47 m  302 -47 l  302 0 l  41 0 l  41 -47 l  62 -69 91 -98 128 -135 ct 
164 -172 187 -195 196 -206 ct 214 -226 227 -243 234 -257 ct 241 -271 244 -284 244 -298 ct 
244 -320 237 -338 221 -351 ct 206 -365 186 -372 161 -372 ct 144 -372 126 -369 106 -363 ct 
87 -357 66 -348 44 -335 ct 44 -392 l  66 -401 87 -407 107 -412 ct 126 -417 144 -419 160 -419 ct 
203 -419 237 -408 262 -387 ct 288 -366 300 -337 300 -301 ct 300 -285 297 -269 291 -253 ct 
284 -238 273 -220 256 -200 ct 252 -194 237 -179 212 -154 ct 188 -128 153 -93 108 -47 ct 
p ef
539 -375 m  511 -375 489 -361 475 -333 ct 460 -304 453 -262 453 -205 ct 453 -149 460 -107 475 -78 ct 
489 -50 511 -36 539 -36 ct 568 -36 590 -50 604 -78 ct 619 -107 626 -149 626 -205 ct 
626 -262 619 -304 604 -333 ct 590 -361 568 -375 539 -375 ct p
539 -419 m  585 -419 621 -401 645 -364 ct 669 -328 681 -275 681 -205 ct 681 -136 669 -83 645 -47 ct 
621 -10 585 8 539 8 ct 493 8 458 -10 434 -47 ct 409 -83 397 -136 397 -205 ct 397 -275 409 -328 434 -364 ct 
458 -401 493 -419 539 -419 ct p ef
pom
gs
0.898 c 5576 7669 m  9320 7669 l  9320 8582 l  5576 8582 l  5576 7669 l 
p ef
gr
pum
5826 8321 t
158 -331 m  158 -80 l  196 -80 l  239 -80 272 -91 295 -112 ct 318 -134 329 -165 329 -206 ct 
329 -247 318 -278 295 -299 ct 272 -320 239 -331 196 -331 ct 158 -331 l  p
52 -411 m  164 -411 l  226 -411 273 -407 303 -398 ct 334 -389 360 -374 382 -353 ct 
401 -334 415 -313 425 -288 ct 434 -264 439 -237 439 -206 ct 439 -175 434 -147 425 -123 ct 
415 -99 401 -77 382 -59 ct 360 -37 333 -22 302 -13 ct 272 -4 225 0 164 0 ct 52 0 l 
52 -411 l  p ef
513 -309 m  612 -309 l  612 0 l  513 0 l  513 -309 l  p
513 -429 m  612 -429 l  612 -349 l  513 -349 l  513 -429 l  p ef
948 -299 m  948 -224 l  927 -233 907 -239 887 -244 ct 868 -248 849 -250 832 -250 ct 
813 -250 799 -248 790 -243 ct 781 -239 776 -232 776 -222 ct 776 -214 780 -208 787 -204 ct 
793 -199 806 -196 824 -194 ct 841 -192 l  891 -185 925 -175 943 -160 ct 960 -145 969 -122 969 -91 ct 
969 -58 957 -33 933 -17 ct 908 0 872 8 824 8 ct 804 8 783 6 761 3 ct 739 0 717 -5 694 -11 ct 
694 -86 l  714 -77 734 -70 754 -65 ct 775 -60 796 -58 817 -58 ct 837 -58 851 -60 861 -66 ct 
871 -71 875 -79 875 -89 ct 875 -98 872 -105 865 -109 ct 859 -113 845 -117 825 -119 ct 
808 -121 l  764 -127 733 -137 716 -152 ct 698 -167 689 -189 689 -220 ct 689 -252 700 -277 723 -292 ct 
745 -308 780 -316 826 -316 ct 844 -316 863 -315 883 -312 ct 903 -309 925 -305 948 -299 ct 
p ef
1292 -299 m  1292 -218 l  1278 -228 1265 -234 1251 -239 ct 1238 -243 1224 -245 1209 -245 ct 
1182 -245 1160 -237 1145 -221 ct 1130 -205 1122 -183 1122 -154 ct 1122 -125 1130 -103 1145 -87 ct 
1160 -71 1182 -63 1209 -63 ct 1225 -63 1239 -65 1253 -69 ct 1267 -74 1280 -81 1292 -90 ct 
1292 -9 l  1276 -3 1261 1 1245 4 ct 1229 7 1213 8 1197 8 ct 1141 8 1098 -6 1066 -35 ct 
1035 -63 1019 -103 1019 -154 ct 1019 -205 1035 -245 1066 -273 ct 1098 -302 1141 -316 1197 -316 ct 
1213 -316 1229 -315 1245 -312 ct 1260 -309 1276 -305 1292 -299 ct p ef
1686 -188 m  1686 0 l  1587 0 l  1587 -31 l  1587 -144 l  1587 -171 1587 -189 1586 -199 ct 
1584 -209 1582 -217 1579 -222 ct 1575 -228 1570 -233 1564 -237 ct 1557 -240 1550 -242 1541 -242 ct 
1520 -242 1504 -234 1493 -218 ct 1481 -202 1475 -180 1475 -152 ct 1475 0 l  1376 0 l 
1376 -429 l  1475 -429 l  1475 -264 l  1490 -282 1506 -295 1522 -304 ct 1539 -312 1557 -316 1578 -316 ct 
1613 -316 1640 -305 1659 -284 ct 1677 -262 1686 -230 1686 -188 ct p ef
1917 -139 m  1896 -139 1881 -136 1870 -129 ct 1860 -122 1855 -111 1855 -98 ct 
1855 -85 1859 -75 1867 -68 ct 1876 -61 1887 -58 1902 -58 ct 1921 -58 1936 -64 1949 -78 ct 
1962 -91 1968 -108 1968 -128 ct 1968 -139 l  1917 -139 l  p
2067 -176 m  2067 0 l  1968 0 l  1968 -46 l  1955 -27 1940 -13 1923 -5 ct 
1907 4 1887 8 1863 8 ct 1831 8 1805 -1 1785 -20 ct 1765 -39 1755 -63 1755 -93 ct 
1755 -129 1768 -155 1793 -172 ct 1817 -189 1856 -198 1910 -198 ct 1968 -198 l 
1968 -205 l  1968 -221 1962 -232 1949 -240 ct 1937 -247 1918 -250 1892 -250 ct 
1871 -250 1851 -248 1833 -244 ct 1815 -240 1798 -234 1782 -225 ct 1782 -300 l 
1803 -305 1825 -309 1846 -312 ct 1867 -315 1888 -316 1910 -316 ct 1965 -316 2006 -305 2030 -283 ct 
2055 -261 2067 -225 2067 -176 ct p ef
2389 -224 m  2380 -228 2371 -231 2363 -233 ct 2354 -235 2346 -236 2337 -236 ct 
2312 -236 2292 -228 2278 -212 ct 2265 -195 2258 -172 2258 -142 ct 2258 0 l  2159 0 l 
2159 -309 l  2258 -309 l  2258 -258 l  2271 -278 2285 -292 2302 -301 ct 2318 -310 2338 -315 2361 -315 ct 
2364 -315 2368 -315 2371 -315 ct 2375 -315 2381 -315 2388 -314 ct 2389 -224 l 
p ef
2649 -52 m  2636 -34 2621 -21 2604 -13 ct 2588 -4 2569 0 2548 0 ct 2510 0 2479 -15 2454 -44 ct 
2430 -74 2417 -112 2417 -158 ct 2417 -204 2430 -241 2454 -271 ct 2479 -300 2510 -315 2548 -315 ct 
2569 -315 2588 -311 2604 -302 ct 2621 -294 2636 -281 2649 -262 ct 2649 -308 l 
2748 -308 l  2748 -31 l  2748 19 2733 57 2701 83 ct 2670 109 2625 122 2565 122 ct 
2546 122 2527 121 2509 118 ct 2491 115 2473 110 2455 104 ct 2455 27 l  2472 37 2489 44 2506 49 ct 
2522 54 2539 57 2556 57 ct 2588 57 2612 50 2627 35 ct 2642 21 2649 -1 2649 -31 ct 
2649 -52 l  p
2584 -244 m  2564 -244 2548 -236 2537 -221 ct 2525 -206 2520 -185 2520 -158 ct 
2520 -129 2525 -108 2536 -93 ct 2547 -79 2563 -72 2584 -72 ct 2605 -72 2621 -79 2632 -94 ct 
2644 -109 2649 -130 2649 -158 ct 2649 -185 2644 -206 2632 -221 ct 2621 -236 2605 -244 2584 -244 ct 
p ef
3149 -155 m  3149 -127 l  2919 -127 l  2921 -104 2929 -87 2944 -75 ct 2958 -63 2978 -58 3004 -58 ct 
3025 -58 3046 -61 3068 -67 ct 3089 -73 3112 -82 3135 -95 ct 3135 -19 l  3111 -10 3088 -3 3065 1 ct 
3041 6 3018 8 2995 8 ct 2939 8 2896 -6 2865 -35 ct 2834 -63 2818 -103 2818 -154 ct 
2818 -204 2833 -244 2864 -273 ct 2894 -302 2936 -316 2989 -316 ct 3038 -316 3077 -301 3106 -272 ct 
3135 -243 3149 -204 3149 -155 ct p
3048 -188 m  3048 -207 3042 -222 3032 -233 ct 3021 -245 3006 -250 2989 -250 ct 
2970 -250 2954 -245 2942 -234 ct 2930 -224 2923 -208 2920 -188 ct 3048 -188 l 
p ef
pom
gs
0.898 c 9320 7669 m  11012 7669 l  11012 8582 l  9320 8582 l  9320 7669 l 
p ef
gr
pum
9626 8321 t
70 -47 m  161 -47 l  161 -361 l  62 -341 l  62 -392 l  160 -412 l  216 -412 l 
216 -47 l  307 -47 l  307 0 l  70 0 l  70 -47 l  p ef
421 -411 m  639 -411 l  639 -364 l  472 -364 l  472 -264 l  480 -266 488 -268 496 -270 ct 
504 -271 512 -272 520 -272 ct 566 -272 603 -259 629 -234 ct 656 -209 670 -175 670 -132 ct 
670 -88 656 -53 628 -29 ct 601 -4 562 8 512 8 ct 494 8 477 7 459 4 ct 441 1 423 -4 404 -10 ct 
404 -66 l  420 -57 437 -50 455 -45 ct 472 -41 491 -39 511 -39 ct 542 -39 568 -47 586 -64 ct 
605 -81 614 -103 614 -132 ct 614 -161 605 -183 586 -200 ct 568 -217 542 -225 511 -225 ct 
496 -225 481 -223 466 -220 ct 451 -217 436 -212 421 -205 ct 421 -411 l  p ef
899 -375 m  871 -375 849 -361 835 -333 ct 820 -304 813 -262 813 -205 ct 813 -149 820 -107 835 -78 ct 
849 -50 871 -36 899 -36 ct 928 -36 950 -50 964 -78 ct 979 -107 986 -149 986 -205 ct 
986 -262 979 -304 964 -333 ct 950 -361 928 -375 899 -375 ct p
899 -419 m  945 -419 981 -401 1005 -364 ct 1029 -328 1041 -275 1041 -205 ct 
1041 -136 1029 -83 1005 -47 ct 981 -10 945 8 899 8 ct 853 8 818 -10 794 -47 ct 
769 -83 757 -136 757 -205 ct 757 -275 769 -328 794 -364 ct 818 -401 853 -419 899 -419 ct 
p ef
pom
gs
0.898 c 11012 7669 m  12674 7669 l  12674 8582 l  11012 8582 l  11012 7669 l 
p ef
gr
pum
11742 8321 t
28 -177 m  176 -177 l  176 -132 l  28 -132 l  28 -177 l  p ef
pom
gs
0.898 c 12674 7669 m  14304 7669 l  14304 8582 l  12674 8582 l  12674 7669 l 
p ef
gr
pum
12949 8321 t
70 -47 m  161 -47 l  161 -361 l  62 -341 l  62 -392 l  160 -412 l  216 -412 l 
216 -47 l  307 -47 l  307 0 l  70 0 l  70 -47 l  p ef
421 -411 m  639 -411 l  639 -364 l  472 -364 l  472 -264 l  480 -266 488 -268 496 -270 ct 
504 -271 512 -272 520 -272 ct 566 -272 603 -259 629 -234 ct 656 -209 670 -175 670 -132 ct 
670 -88 656 -53 628 -29 ct 601 -4 562 8 512 8 ct 494 8 477 7 459 4 ct 441 1 423 -4 404 -10 ct 
404 -66 l  420 -57 437 -50 455 -45 ct 472 -41 491 -39 511 -39 ct 542 -39 568 -47 586 -64 ct 
605 -81 614 -103 614 -132 ct 614 -161 605 -183 586 -200 ct 568 -217 542 -225 511 -225 ct 
496 -225 481 -223 466 -220 ct 451 -217 436 -212 421 -205 ct 421 -411 l  p ef
899 -375 m  871 -375 849 -361 835 -333 ct 820 -304 813 -262 813 -205 ct 813 -149 820 -107 835 -78 ct 
849 -50 871 -36 899 -36 ct 928 -36 950 -50 964 -78 ct 979 -107 986 -149 986 -205 ct 
986 -262 979 -304 964 -333 ct 950 -361 928 -375 899 -375 ct p
899 -419 m  945 -419 981 -401 1005 -364 ct 1029 -328 1041 -275 1041 -205 ct 
1041 -136 1029 -83 1005 -47 ct 981 -10 945 8 899 8 ct 853 8 818 -10 794 -47 ct 
769 -83 757 -136 757 -205 ct 757 -275 769 -328 794 -364 ct 818 -401 853 -419 899 -419 ct 
p ef
pom
gs
0.796 c 5576 8582 m  9320 8582 l  9320 9495 l  5576 9495 l  5576 8582 l 
p ef
gr
pum
5826 9234 t
52 -412 m  158 -412 l  158 -80 l  344 -80 l  344 0 l  52 0 l  52 -412 l 
p ef
554 -245 m  532 -245 516 -238 504 -222 ct 493 -206 487 -184 487 -154 ct 487 -124 493 -102 504 -86 ct 
516 -70 532 -63 554 -63 ct 576 -63 592 -70 603 -86 ct 615 -102 621 -124 621 -154 ct 
621 -184 615 -206 603 -222 ct 592 -238 576 -245 554 -245 ct p
554 -316 m  607 -316 649 -302 678 -273 ct 708 -244 723 -205 723 -154 ct 723 -103 708 -64 678 -35 ct 
649 -6 607 8 554 8 ct 501 8 459 -6 429 -35 ct 399 -64 384 -103 384 -154 ct 384 -205 399 -244 429 -273 ct 
459 -302 501 -316 554 -316 ct p ef
931 -139 m  910 -139 895 -136 884 -129 ct 874 -122 869 -111 869 -98 ct 869 -85 873 -75 881 -68 ct 
890 -61 901 -58 916 -58 ct 935 -58 950 -64 963 -78 ct 976 -91 982 -108 982 -128 ct 
982 -139 l  931 -139 l  p
1081 -176 m  1081 0 l  982 0 l  982 -46 l  969 -27 954 -13 937 -5 ct 921 4 901 8 877 8 ct 
845 8 819 -1 799 -20 ct 779 -39 769 -63 769 -93 ct 769 -129 782 -155 807 -172 ct 
831 -189 870 -198 924 -198 ct 982 -198 l  982 -205 l  982 -221 976 -232 963 -240 ct 
951 -247 932 -250 906 -250 ct 885 -250 865 -248 847 -244 ct 829 -240 812 -234 796 -225 ct 
796 -300 l  817 -305 839 -309 860 -312 ct 881 -315 902 -316 924 -316 ct 979 -316 1020 -305 1044 -283 ct 
1069 -261 1081 -225 1081 -176 ct p ef
1383 -264 m  1383 -429 l  1482 -429 l  1482 0 l  1383 0 l  1383 -45 l 
1370 -27 1355 -14 1338 -5 ct 1322 3 1303 8 1282 8 ct 1244 8 1212 -8 1188 -38 ct 
1164 -68 1151 -107 1151 -155 ct 1151 -202 1164 -241 1188 -271 ct 1212 -302 1244 -317 1282 -317 ct 
1303 -317 1322 -312 1338 -304 ct 1355 -295 1370 -282 1383 -264 ct p
1318 -64 m  1339 -64 1355 -72 1367 -87 ct 1378 -103 1383 -125 1383 -154 ct 1383 -184 1378 -206 1367 -222 ct 
1355 -237 1339 -245 1318 -245 ct 1297 -245 1281 -237 1270 -222 ct 1259 -206 1254 -184 1254 -154 ct 
1254 -125 1259 -103 1270 -87 ct 1281 -72 1297 -64 1318 -64 ct p ef
pom
gs
0.796 c 9320 8582 m  11012 8582 l  11012 9495 l  9320 9495 l  9320 8582 l 
p ef
gr
pum
10065 9234 t
28 -177 m  176 -177 l  176 -132 l  28 -132 l  28 -177 l  p ef
pom
gs
0.796 c 11012 8582 m  12674 8582 l  12674 9495 l  11012 9495 l  11012 8582 l 
p ef
gr
pum
11303 9234 t
70 -47 m  161 -47 l  161 -361 l  62 -341 l  62 -392 l  160 -412 l  216 -412 l 
216 -47 l  307 -47 l  307 0 l  70 0 l  70 -47 l  p ef
421 -411 m  639 -411 l  639 -364 l  472 -364 l  472 -264 l  480 -266 488 -268 496 -270 ct 
504 -271 512 -272 520 -272 ct 566 -272 603 -259 629 -234 ct 656 -209 670 -175 670 -132 ct 
670 -88 656 -53 628 -29 ct 601 -4 562 8 512 8 ct 494 8 477 7 459 4 ct 441 1 423 -4 404 -10 ct 
404 -66 l  420 -57 437 -50 455 -45 ct 472 -41 491 -39 511 -39 ct 542 -39 568 -47 586 -64 ct 
605 -81 614 -103 614 -132 ct 614 -161 605 -183 586 -200 ct 568 -217 542 -225 511 -225 ct 
496 -225 481 -223 466 -220 ct 451 -217 436 -212 421 -205 ct 421 -411 l  p ef
899 -375 m  871 -375 849 -361 835 -333 ct 820 -304 813 -262 813 -205 ct 813 -149 820 -107 835 -78 ct 
849 -50 871 -36 899 -36 ct 928 -36 950 -50 964 -78 ct 979 -107 986 -149 986 -205 ct 
986 -262 979 -304 964 -333 ct 950 -361 928 -375 899 -375 ct p
899 -419 m  945 -419 981 -401 1005 -364 ct 1029 -328 1041 -275 1041 -205 ct 
1041 -136 1029 -83 1005 -47 ct 981 -10 945 8 899 8 ct 853 8 818 -10 794 -47 ct 
769 -83 757 -136 757 -205 ct 757 -275 769 -328 794 -364 ct 818 -401 853 -419 899 -419 ct 
p ef
pom
gs
0.796 c 12674 8582 m  14304 8582 l  14304 9495 l  12674 9495 l  12674 8582 l 
p ef
gr
pum
13388 9234 t
28 -177 m  176 -177 l  176 -132 l  28 -132 l  28 -177 l  p ef
pom
gs
0.898 c 2200 9495 m  5576 9495 l  5576 13276 l  2200 13276 l  2200 9495 l 
p ef
gr
pum
2731 11580 t
161 0 m  4 -412 l  63 -412 l  193 -65 l  323 -412 l  381 -412 l  224 0 l 
161 0 l  p ef
660 -167 m  660 -142 l  427 -142 l  429 -107 440 -81 459 -62 ct 477 -44 504 -35 537 -35 ct 
557 -35 575 -37 594 -42 ct 612 -47 630 -54 648 -64 ct 648 -16 l  630 -8 611 -2 592 2 ct 
573 6 554 8 534 8 ct 485 8 446 -6 417 -35 ct 388 -64 374 -102 374 -151 ct 374 -202 388 -242 415 -271 ct 
442 -301 479 -316 525 -316 ct 567 -316 600 -303 624 -276 ct 648 -249 660 -213 660 -167 ct 
p
609 -181 m  609 -209 601 -231 586 -248 ct 571 -265 551 -273 526 -273 ct 498 -273 475 -265 458 -249 ct 
441 -233 431 -210 429 -181 ct 609 -181 l  p ef
940 -299 m  940 -252 l  925 -259 911 -264 895 -268 ct 880 -272 864 -274 847 -274 ct 
822 -274 803 -270 791 -262 ct 778 -254 772 -243 772 -227 ct 772 -216 776 -206 785 -200 ct 
794 -193 812 -187 840 -180 ct 857 -177 l  893 -169 918 -158 934 -144 ct 949 -130 956 -110 956 -85 ct 
956 -56 945 -34 922 -17 ct 900 0 868 8 829 8 ct 812 8 795 6 777 3 ct 759 0 740 -5 721 -11 ct 
721 -64 l  739 -54 758 -47 776 -42 ct 794 -37 812 -34 830 -34 ct 854 -34 872 -39 885 -47 ct 
898 -55 904 -66 904 -81 ct 904 -95 900 -106 890 -113 ct 881 -120 861 -127 829 -134 ct 
812 -138 l  780 -145 758 -155 744 -169 ct 730 -182 723 -201 723 -225 ct 723 -254 733 -277 754 -292 ct 
774 -308 803 -316 841 -316 ct 860 -316 878 -315 894 -312 ct 911 -309 926 -305 940 -299 ct 
p ef
1232 -299 m  1232 -252 l  1217 -259 1203 -264 1187 -268 ct 1172 -272 1156 -274 1139 -274 ct 
1114 -274 1095 -270 1083 -262 ct 1070 -254 1064 -243 1064 -227 ct 1064 -216 1068 -206 1077 -200 ct 
1086 -193 1104 -187 1132 -180 ct 1149 -177 l  1185 -169 1210 -158 1226 -144 ct 
1241 -130 1248 -110 1248 -85 ct 1248 -56 1237 -34 1214 -17 ct 1192 0 1160 8 1121 8 ct 
1104 8 1087 6 1069 3 ct 1051 0 1032 -5 1013 -11 ct 1013 -64 l  1031 -54 1050 -47 1068 -42 ct 
1086 -37 1104 -34 1122 -34 ct 1146 -34 1164 -39 1177 -47 ct 1190 -55 1196 -66 1196 -81 ct 
1196 -95 1192 -106 1182 -113 ct 1173 -120 1153 -127 1121 -134 ct 1104 -138 l 
1072 -145 1050 -155 1036 -169 ct 1022 -182 1015 -201 1015 -225 ct 1015 -254 1025 -277 1046 -292 ct 
1066 -308 1095 -316 1133 -316 ct 1152 -316 1170 -315 1186 -312 ct 1203 -309 1218 -305 1232 -299 ct 
p ef
1591 -167 m  1591 -142 l  1358 -142 l  1360 -107 1371 -81 1390 -62 ct 1408 -44 1435 -35 1468 -35 ct 
1488 -35 1506 -37 1525 -42 ct 1543 -47 1561 -54 1579 -64 ct 1579 -16 l  1561 -8 1542 -2 1523 2 ct 
1504 6 1485 8 1465 8 ct 1416 8 1377 -6 1348 -35 ct 1319 -64 1305 -102 1305 -151 ct 
1305 -202 1319 -242 1346 -271 ct 1373 -301 1410 -316 1456 -316 ct 1498 -316 1531 -303 1555 -276 ct 
1579 -249 1591 -213 1591 -167 ct p
1540 -181 m  1540 -209 1532 -231 1517 -248 ct 1502 -265 1482 -273 1457 -273 ct 
1429 -273 1406 -265 1389 -249 ct 1372 -233 1362 -210 1360 -181 ct 1540 -181 l 
p ef
1674 -429 m  1725 -429 l  1725 0 l  1674 0 l  1674 -429 l  p ef
2026 -47 m  2117 -47 l  2117 -361 l  2018 -341 l  2018 -392 l  2116 -412 l 
2172 -412 l  2172 -47 l  2263 -47 l  2263 0 l  2026 0 l  2026 -47 l  p ef
pom
gs
0.898 c 5576 9495 m  9320 9495 l  9320 10538 l  5576 10538 l  5576 9495 l 
p ef
gr
pum
5826 10212 t
52 -412 m  228 -412 l  280 -412 320 -400 348 -377 ct 376 -354 390 -321 390 -278 ct 
390 -234 376 -201 348 -178 ct 320 -155 280 -143 228 -143 ct 158 -143 l  158 -1 l 
52 -1 l  52 -412 l  p
158 -335 m  158 -220 l  216 -220 l  237 -220 253 -225 264 -235 ct 275 -245 281 -259 281 -278 ct 
281 -296 275 -310 264 -320 ct 253 -330 237 -335 216 -335 ct 158 -335 l  p ef
605 -245 m  583 -245 567 -238 555 -222 ct 544 -206 538 -184 538 -154 ct 538 -124 544 -102 555 -86 ct 
567 -70 583 -63 605 -63 ct 627 -63 643 -70 654 -86 ct 666 -102 672 -124 672 -154 ct 
672 -184 666 -206 654 -222 ct 643 -238 627 -245 605 -245 ct p
605 -316 m  658 -316 700 -302 729 -273 ct 759 -244 774 -205 774 -154 ct 774 -103 759 -64 729 -35 ct 
700 -6 658 8 605 8 ct 552 8 510 -6 480 -35 ct 450 -64 435 -103 435 -154 ct 435 -205 450 -244 480 -273 ct 
510 -302 552 -316 605 -316 ct p ef
1073 -224 m  1064 -228 1055 -231 1047 -233 ct 1038 -235 1030 -236 1021 -236 ct 
996 -236 976 -228 962 -212 ct 949 -195 942 -172 942 -142 ct 942 0 l  843 0 l 
843 -309 l  942 -309 l  942 -258 l  955 -278 969 -292 986 -301 ct 1002 -310 1022 -315 1045 -315 ct 
1048 -315 1052 -315 1055 -315 ct 1059 -315 1065 -315 1072 -314 ct 1073 -224 l 
p ef
1230 -396 m  1230 -309 l  1332 -309 l  1332 -238 l  1230 -238 l  1230 -107 l 
1230 -93 1233 -83 1239 -78 ct 1244 -73 1256 -71 1272 -71 ct 1323 -71 l  1323 0 l 
1239 0 l  1200 0 1172 -8 1156 -24 ct 1140 -41 1131 -68 1131 -107 ct 1131 -238 l 
1082 -238 l  1082 -309 l  1131 -309 l  1131 -396 l  1230 -396 l  p ef
pom
gs
0.898 c 9320 9495 m  11012 9495 l  11012 10538 l  9320 10538 l  9320 9495 l 
p ef
gr
pum
9893 10147 t
111 -365 m  111 -211 l  181 -211 l  207 -211 227 -217 241 -231 ct 255 -244 262 -263 262 -288 ct 
262 -313 255 -332 241 -345 ct 227 -359 207 -365 181 -365 ct 111 -365 l  p
55 -411 m  181 -411 l  227 -411 262 -401 285 -380 ct 309 -359 321 -328 321 -288 ct 
321 -248 309 -217 285 -196 ct 262 -175 227 -165 181 -165 ct 111 -165 l  111 1 l 
55 1 l  55 -411 l  p ef
pom
pum
10232 10333 t
133 -128 m  148 -125 160 -118 169 -107 ct 178 -97 182 -84 182 -69 ct 182 -45 174 -27 158 -14 ct 
141 -1 118 5 89 5 ct 79 5 68 4 58 2 ct 47 0 36 -3 25 -7 ct 25 -38 l  34 -33 44 -29 54 -26 ct 
65 -23 76 -22 88 -22 ct 108 -22 123 -26 134 -34 ct 144 -42 150 -54 150 -69 ct 150 -83 145 -94 135 -102 ct 
125 -110 111 -114 94 -114 ct 66 -114 l  66 -140 l  95 -140 l  111 -140 123 -143 132 -150 ct 
140 -156 144 -165 144 -177 ct 144 -189 140 -199 131 -205 ct 123 -212 110 -215 94 -215 ct 
85 -215 76 -214 65 -212 ct 55 -210 44 -207 32 -203 ct 32 -232 l  44 -235 56 -238 67 -240 ct 
77 -241 87 -242 97 -242 ct 121 -242 141 -237 155 -225 ct 169 -214 176 -199 176 -180 ct 
176 -167 173 -156 165 -147 ct 157 -138 147 -132 133 -128 ct p ef
pom
gs
0.898 c 11012 9495 m  12674 9495 l  12674 10538 l  11012 10538 l  11012 9495 l 
p ef
gr
pum
11570 10147 t
111 -365 m  111 -211 l  181 -211 l  207 -211 227 -217 241 -231 ct 255 -244 262 -263 262 -288 ct 
262 -313 255 -332 241 -345 ct 227 -359 207 -365 181 -365 ct 111 -365 l  p
55 -411 m  181 -411 l  227 -411 262 -401 285 -380 ct 309 -359 321 -328 321 -288 ct 
321 -248 309 -217 285 -196 ct 262 -175 227 -165 181 -165 ct 111 -165 l  111 1 l 
55 1 l  55 -411 l  p ef
pom
pum
11909 10333 t
63 -27 m  175 -27 l  175 0 l  24 0 l  24 -27 l  36 -40 53 -57 74 -78 ct 95 -99 108 -113 114 -119 ct 
124 -131 131 -141 135 -149 ct 140 -157 142 -164 142 -172 ct 142 -185 137 -195 128 -203 ct 
119 -211 108 -215 94 -215 ct 83 -215 73 -213 62 -210 ct 50 -206 38 -201 26 -194 ct 
26 -226 l  39 -232 51 -235 62 -238 ct 73 -241 84 -242 93 -242 ct 118 -242 137 -236 152 -224 ct 
167 -211 174 -195 174 -174 ct 174 -165 172 -155 169 -146 ct 165 -138 158 -127 148 -116 ct 
146 -112 137 -104 123 -89 ct 109 -74 89 -54 63 -27 ct p ef
pom
gs
0.898 c 12674 9495 m  14304 9495 l  14304 10538 l  12674 10538 l  12674 9495 l 
p ef
gr
pum
13216 10147 t
111 -365 m  111 -211 l  181 -211 l  207 -211 227 -217 241 -231 ct 255 -244 262 -263 262 -288 ct 
262 -313 255 -332 241 -345 ct 227 -359 207 -365 181 -365 ct 111 -365 l  p
55 -411 m  181 -411 l  227 -411 262 -401 285 -380 ct 309 -359 321 -328 321 -288 ct 
321 -248 309 -217 285 -196 ct 262 -175 227 -165 181 -165 ct 111 -165 l  111 1 l 
55 1 l  55 -411 l  p ef
pom
pum
13555 10333 t
104 -216 m  87 -216 75 -208 67 -192 ct 58 -176 54 -151 54 -118 ct 54 -86 58 -61 67 -45 ct 
75 -29 87 -21 104 -21 ct 121 -21 133 -29 142 -45 ct 150 -61 154 -86 154 -118 ct 
154 -151 150 -176 142 -192 ct 133 -208 121 -216 104 -216 ct p
104 -242 m  131 -242 151 -231 165 -210 ct 179 -189 186 -159 186 -118 ct 186 -78 179 -48 165 -27 ct 
151 -6 131 5 104 5 ct 77 5 57 -6 43 -27 ct 29 -48 22 -78 22 -118 ct 22 -159 29 -189 43 -210 ct 
57 -231 77 -242 104 -242 ct p ef
pom
gs
0.796 c 5576 10538 m  9320 10538 l  9320 11451 l  5576 11451 l  5576 10538 l 
p ef
gr
pum
5826 11190 t
3 -411 m  382 -411 l  382 -331 l  245 -331 l  245 0 l  139 0 l  139 -331 l 
3 -331 l  3 -411 l  p ef
432 -309 m  531 -309 l  531 0 l  432 0 l  432 -309 l  p
432 -429 m  531 -429 l  531 -349 l  432 -349 l  432 -429 l  p ef
913 -257 m  926 -276 941 -291 958 -301 ct 975 -311 994 -316 1014 -316 ct 1050 -316 1077 -305 1095 -283 ct 
1114 -261 1123 -230 1123 -188 ct 1123 0 l  1024 0 l  1024 -161 l  1024 -163 1024 -166 1024 -168 ct 
1024 -171 1024 -175 1024 -179 ct 1024 -201 1021 -217 1015 -227 ct 1008 -237 998 -242 984 -242 ct 
965 -242 951 -234 940 -218 ct 930 -203 925 -181 925 -152 ct 925 0 l  825 0 l 
825 -161 l  825 -195 822 -217 817 -227 ct 811 -237 800 -242 785 -242 ct 766 -242 752 -234 741 -218 ct 
731 -203 726 -181 726 -152 ct 726 0 l  627 0 l  627 -309 l  726 -309 l  726 -263 l 
738 -281 752 -294 768 -303 ct 783 -312 801 -316 820 -316 ct 841 -316 860 -311 876 -301 ct 
892 -290 905 -276 913 -257 ct p ef
1523 -155 m  1523 -127 l  1293 -127 l  1295 -104 1303 -87 1318 -75 ct 1332 -63 1352 -58 1378 -58 ct 
1399 -58 1420 -61 1442 -67 ct 1463 -73 1486 -82 1509 -95 ct 1509 -19 l  1485 -10 1462 -3 1439 1 ct 
1415 6 1392 8 1369 8 ct 1313 8 1270 -6 1239 -35 ct 1208 -63 1192 -103 1192 -154 ct 
1192 -204 1207 -244 1238 -273 ct 1268 -302 1310 -316 1363 -316 ct 1412 -316 1451 -301 1480 -272 ct 
1509 -243 1523 -204 1523 -155 ct p
1422 -188 m  1422 -207 1416 -222 1406 -233 ct 1395 -245 1380 -250 1363 -250 ct 
1344 -250 1328 -245 1316 -234 ct 1304 -224 1297 -208 1294 -188 ct 1422 -188 l 
p ef
pom
gs
0.796 c 9320 10538 m  11012 10538 l  11012 11451 l  9320 11451 l  9320 10538 l 
p ef
gr
pum
9986 11190 t
70 -47 m  161 -47 l  161 -361 l  62 -341 l  62 -392 l  160 -412 l  216 -412 l 
216 -47 l  307 -47 l  307 0 l  70 0 l  70 -47 l  p ef
pom
gs
0.796 c 11012 10538 m  12674 10538 l  12674 11451 l  11012 11451 l  11012 10538 l 
p ef
gr
pum
11663 11190 t
61 -411 m  279 -411 l  279 -364 l  112 -364 l  112 -264 l  120 -266 128 -268 136 -270 ct 
144 -271 152 -272 160 -272 ct 206 -272 243 -259 269 -234 ct 296 -209 310 -175 310 -132 ct 
310 -88 296 -53 268 -29 ct 241 -4 202 8 152 8 ct 134 8 117 7 99 4 ct 81 1 63 -4 44 -10 ct 
44 -66 l  60 -57 77 -50 95 -45 ct 112 -41 131 -39 151 -39 ct 182 -39 208 -47 226 -64 ct 
245 -81 254 -103 254 -132 ct 254 -161 245 -183 226 -200 ct 208 -217 182 -225 151 -225 ct 
136 -225 121 -223 106 -220 ct 91 -217 76 -212 61 -205 ct 61 -411 l  p ef
pom
gs
0.796 c 12674 10538 m  14304 10538 l  14304 11451 l  12674 11451 l  12674 10538 l 
p ef
gr
pum
13129 11190 t
70 -47 m  161 -47 l  161 -361 l  62 -341 l  62 -392 l  160 -412 l  216 -412 l 
216 -47 l  307 -47 l  307 0 l  70 0 l  70 -47 l  p ef
539 -195 m  513 -195 492 -188 477 -174 ct 462 -160 454 -140 454 -116 ct 454 -91 462 -71 477 -57 ct 
492 -43 513 -36 539 -36 ct 566 -36 587 -43 602 -57 ct 617 -72 625 -91 625 -116 ct 
625 -140 617 -160 602 -174 ct 587 -188 566 -195 539 -195 ct p
484 -219 m  460 -225 441 -236 428 -253 ct 415 -269 408 -289 408 -312 ct 408 -345 420 -371 443 -390 ct 
466 -409 499 -419 539 -419 ct 580 -419 612 -409 636 -390 ct 659 -371 671 -345 671 -312 ct 
671 -289 664 -269 651 -252 ct 637 -236 619 -225 595 -219 ct 622 -213 643 -200 658 -182 ct 
673 -164 680 -142 680 -116 ct 680 -76 668 -45 644 -24 ct 619 -3 585 8 539 8 ct 
494 8 459 -3 435 -24 ct 410 -45 398 -76 398 -116 ct 398 -142 406 -164 421 -182 ct 
436 -201 457 -213 484 -219 ct p
463 -307 m  463 -286 470 -269 483 -257 ct 497 -245 515 -239 539 -239 ct 563 -239 582 -245 595 -257 ct 
609 -269 616 -286 616 -307 ct 616 -328 609 -345 595 -357 ct 582 -369 563 -375 539 -375 ct 
515 -375 497 -369 483 -357 ct 470 -345 463 -328 463 -307 ct p ef
pom
gs
0.898 c 5576 11451 m  9320 11451 l  9320 12363 l  5576 12363 l  5576 11451 l 
p ef
gr
pum
5826 12102 t
158 -331 m  158 -80 l  196 -80 l  239 -80 272 -91 295 -112 ct 318 -134 329 -165 329 -206 ct 
329 -247 318 -278 295 -299 ct 272 -320 239 -331 196 -331 ct 158 -331 l  p
52 -411 m  164 -411 l  226 -411 273 -407 303 -398 ct 334 -389 360 -374 382 -353 ct 
401 -334 415 -313 425 -288 ct 434 -264 439 -237 439 -206 ct 439 -175 434 -147 425 -123 ct 
415 -99 401 -77 382 -59 ct 360 -37 333 -22 302 -13 ct 272 -4 225 0 164 0 ct 52 0 l 
52 -411 l  p ef
513 -309 m  612 -309 l  612 0 l  513 0 l  513 -309 l  p
513 -429 m  612 -429 l  612 -349 l  513 -349 l  513 -429 l  p ef
948 -299 m  948 -224 l  927 -233 907 -239 887 -244 ct 868 -248 849 -250 832 -250 ct 
813 -250 799 -248 790 -243 ct 781 -239 776 -232 776 -222 ct 776 -214 780 -208 787 -204 ct 
793 -199 806 -196 824 -194 ct 841 -192 l  891 -185 925 -175 943 -160 ct 960 -145 969 -122 969 -91 ct 
969 -58 957 -33 933 -17 ct 908 0 872 8 824 8 ct 804 8 783 6 761 3 ct 739 0 717 -5 694 -11 ct 
694 -86 l  714 -77 734 -70 754 -65 ct 775 -60 796 -58 817 -58 ct 837 -58 851 -60 861 -66 ct 
871 -71 875 -79 875 -89 ct 875 -98 872 -105 865 -109 ct 859 -113 845 -117 825 -119 ct 
808 -121 l  764 -127 733 -137 716 -152 ct 698 -167 689 -189 689 -220 ct 689 -252 700 -277 723 -292 ct 
745 -308 780 -316 826 -316 ct 844 -316 863 -315 883 -312 ct 903 -309 925 -305 948 -299 ct 
p ef
1292 -299 m  1292 -218 l  1278 -228 1265 -234 1251 -239 ct 1238 -243 1224 -245 1209 -245 ct 
1182 -245 1160 -237 1145 -221 ct 1130 -205 1122 -183 1122 -154 ct 1122 -125 1130 -103 1145 -87 ct 
1160 -71 1182 -63 1209 -63 ct 1225 -63 1239 -65 1253 -69 ct 1267 -74 1280 -81 1292 -90 ct 
1292 -9 l  1276 -3 1261 1 1245 4 ct 1229 7 1213 8 1197 8 ct 1141 8 1098 -6 1066 -35 ct 
1035 -63 1019 -103 1019 -154 ct 1019 -205 1035 -245 1066 -273 ct 1098 -302 1141 -316 1197 -316 ct 
1213 -316 1229 -315 1245 -312 ct 1260 -309 1276 -305 1292 -299 ct p ef
1686 -188 m  1686 0 l  1587 0 l  1587 -31 l  1587 -144 l  1587 -171 1587 -189 1586 -199 ct 
1584 -209 1582 -217 1579 -222 ct 1575 -228 1570 -233 1564 -237 ct 1557 -240 1550 -242 1541 -242 ct 
1520 -242 1504 -234 1493 -218 ct 1481 -202 1475 -180 1475 -152 ct 1475 0 l  1376 0 l 
1376 -429 l  1475 -429 l  1475 -264 l  1490 -282 1506 -295 1522 -304 ct 1539 -312 1557 -316 1578 -316 ct 
1613 -316 1640 -305 1659 -284 ct 1677 -262 1686 -230 1686 -188 ct p ef
1917 -139 m  1896 -139 1881 -136 1870 -129 ct 1860 -122 1855 -111 1855 -98 ct 
1855 -85 1859 -75 1867 -68 ct 1876 -61 1887 -58 1902 -58 ct 1921 -58 1936 -64 1949 -78 ct 
1962 -91 1968 -108 1968 -128 ct 1968 -139 l  1917 -139 l  p
2067 -176 m  2067 0 l  1968 0 l  1968 -46 l  1955 -27 1940 -13 1923 -5 ct 
1907 4 1887 8 1863 8 ct 1831 8 1805 -1 1785 -20 ct 1765 -39 1755 -63 1755 -93 ct 
1755 -129 1768 -155 1793 -172 ct 1817 -189 1856 -198 1910 -198 ct 1968 -198 l 
1968 -205 l  1968 -221 1962 -232 1949 -240 ct 1937 -247 1918 -250 1892 -250 ct 
1871 -250 1851 -248 1833 -244 ct 1815 -240 1798 -234 1782 -225 ct 1782 -300 l 
1803 -305 1825 -309 1846 -312 ct 1867 -315 1888 -316 1910 -316 ct 1965 -316 2006 -305 2030 -283 ct 
2055 -261 2067 -225 2067 -176 ct p ef
2389 -224 m  2380 -228 2371 -231 2363 -233 ct 2354 -235 2346 -236 2337 -236 ct 
2312 -236 2292 -228 2278 -212 ct 2265 -195 2258 -172 2258 -142 ct 2258 0 l  2159 0 l 
2159 -309 l  2258 -309 l  2258 -258 l  2271 -278 2285 -292 2302 -301 ct 2318 -310 2338 -315 2361 -315 ct 
2364 -315 2368 -315 2371 -315 ct 2375 -315 2381 -315 2388 -314 ct 2389 -224 l 
p ef
2649 -52 m  2636 -34 2621 -21 2604 -13 ct 2588 -4 2569 0 2548 0 ct 2510 0 2479 -15 2454 -44 ct 
2430 -74 2417 -112 2417 -158 ct 2417 -204 2430 -241 2454 -271 ct 2479 -300 2510 -315 2548 -315 ct 
2569 -315 2588 -311 2604 -302 ct 2621 -294 2636 -281 2649 -262 ct 2649 -308 l 
2748 -308 l  2748 -31 l  2748 19 2733 57 2701 83 ct 2670 109 2625 122 2565 122 ct 
2546 122 2527 121 2509 118 ct 2491 115 2473 110 2455 104 ct 2455 27 l  2472 37 2489 44 2506 49 ct 
2522 54 2539 57 2556 57 ct 2588 57 2612 50 2627 35 ct 2642 21 2649 -1 2649 -31 ct 
2649 -52 l  p
2584 -244 m  2564 -244 2548 -236 2537 -221 ct 2525 -206 2520 -185 2520 -158 ct 
2520 -129 2525 -108 2536 -93 ct 2547 -79 2563 -72 2584 -72 ct 2605 -72 2621 -79 2632 -94 ct 
2644 -109 2649 -130 2649 -158 ct 2649 -185 2644 -206 2632 -221 ct 2621 -236 2605 -244 2584 -244 ct 
p ef
3149 -155 m  3149 -127 l  2919 -127 l  2921 -104 2929 -87 2944 -75 ct 2958 -63 2978 -58 3004 -58 ct 
3025 -58 3046 -61 3068 -67 ct 3089 -73 3112 -82 3135 -95 ct 3135 -19 l  3111 -10 3088 -3 3065 1 ct 
3041 6 3018 8 2995 8 ct 2939 8 2896 -6 2865 -35 ct 2834 -63 2818 -103 2818 -154 ct 
2818 -204 2833 -244 2864 -273 ct 2894 -302 2936 -316 2989 -316 ct 3038 -316 3077 -301 3106 -272 ct 
3135 -243 3149 -204 3149 -155 ct p
3048 -188 m  3048 -207 3042 -222 3032 -233 ct 3021 -245 3006 -250 2989 -250 ct 
2970 -250 2954 -245 2942 -234 ct 2930 -224 2923 -208 2920 -188 ct 3048 -188 l 
p ef
pom
gs
0.898 c 9320 11451 m  11012 11451 l  11012 12363 l  9320 12363 l  9320 11451 l 
p ef
gr
pum
9806 12102 t
46 -411 m  311 -411 l  311 -387 l  161 1 l  103 1 l  244 -364 l  46 -364 l 
46 -411 l  p ef
421 -411 m  639 -411 l  639 -364 l  472 -364 l  472 -264 l  480 -266 488 -268 496 -270 ct 
504 -271 512 -272 520 -272 ct 566 -272 603 -259 629 -234 ct 656 -209 670 -175 670 -132 ct 
670 -88 656 -53 628 -29 ct 601 -4 562 8 512 8 ct 494 8 477 7 459 4 ct 441 1 423 -4 404 -10 ct 
404 -66 l  420 -57 437 -50 455 -45 ct 472 -41 491 -39 511 -39 ct 542 -39 568 -47 586 -64 ct 
605 -81 614 -103 614 -132 ct 614 -161 605 -183 586 -200 ct 568 -217 542 -225 511 -225 ct 
496 -225 481 -223 466 -220 ct 451 -217 436 -212 421 -205 ct 421 -411 l  p ef
pom
gs
0.898 c 11012 11451 m  12674 11451 l  12674 12363 l  11012 12363 l  11012 11451 l 
p ef
gr
pum
11483 12102 t
108 -47 m  302 -47 l  302 0 l  41 0 l  41 -47 l  62 -69 91 -98 128 -135 ct 
164 -172 187 -195 196 -206 ct 214 -226 227 -243 234 -257 ct 241 -271 244 -284 244 -298 ct 
244 -320 237 -338 221 -351 ct 206 -365 186 -372 161 -372 ct 144 -372 126 -369 106 -363 ct 
87 -357 66 -348 44 -335 ct 44 -392 l  66 -401 87 -407 107 -412 ct 126 -417 144 -419 160 -419 ct 
203 -419 237 -408 262 -387 ct 288 -366 300 -337 300 -301 ct 300 -285 297 -269 291 -253 ct 
284 -238 273 -220 256 -200 ct 252 -194 237 -179 212 -154 ct 188 -128 153 -93 108 -47 ct 
p ef
421 -411 m  639 -411 l  639 -364 l  472 -364 l  472 -264 l  480 -266 488 -268 496 -270 ct 
504 -271 512 -272 520 -272 ct 566 -272 603 -259 629 -234 ct 656 -209 670 -175 670 -132 ct 
670 -88 656 -53 628 -29 ct 601 -4 562 8 512 8 ct 494 8 477 7 459 4 ct 441 1 423 -4 404 -10 ct 
404 -66 l  420 -57 437 -50 455 -45 ct 472 -41 491 -39 511 -39 ct 542 -39 568 -47 586 -64 ct 
605 -81 614 -103 614 -132 ct 614 -161 605 -183 586 -200 ct 568 -217 542 -225 511 -225 ct 
496 -225 481 -223 466 -220 ct 451 -217 436 -212 421 -205 ct 421 -411 l  p ef
pom
gs
0.898 c 12674 11451 m  14304 11451 l  14304 12363 l  12674 12363 l  12674 11451 l 
p ef
gr
pum
13388 12102 t
28 -177 m  176 -177 l  176 -132 l  28 -132 l  28 -177 l  p ef
pom
gs
0.796 c 5576 12363 m  9320 12363 l  9320 13276 l  5576 13276 l  5576 12363 l 
p ef
gr
pum
5826 13015 t
52 -412 m  158 -412 l  158 -80 l  344 -80 l  344 0 l  52 0 l  52 -412 l 
p ef
554 -245 m  532 -245 516 -238 504 -222 ct 493 -206 487 -184 487 -154 ct 487 -124 493 -102 504 -86 ct 
516 -70 532 -63 554 -63 ct 576 -63 592 -70 603 -86 ct 615 -102 621 -124 621 -154 ct 
621 -184 615 -206 603 -222 ct 592 -238 576 -245 554 -245 ct p
554 -316 m  607 -316 649 -302 678 -273 ct 708 -244 723 -205 723 -154 ct 723 -103 708 -64 678 -35 ct 
649 -6 607 8 554 8 ct 501 8 459 -6 429 -35 ct 399 -64 384 -103 384 -154 ct 384 -205 399 -244 429 -273 ct 
459 -302 501 -316 554 -316 ct p ef
931 -139 m  910 -139 895 -136 884 -129 ct 874 -122 869 -111 869 -98 ct 869 -85 873 -75 881 -68 ct 
890 -61 901 -58 916 -58 ct 935 -58 950 -64 963 -78 ct 976 -91 982 -108 982 -128 ct 
982 -139 l  931 -139 l  p
1081 -176 m  1081 0 l  982 0 l  982 -46 l  969 -27 954 -13 937 -5 ct 921 4 901 8 877 8 ct 
845 8 819 -1 799 -20 ct 779 -39 769 -63 769 -93 ct 769 -129 782 -155 807 -172 ct 
831 -189 870 -198 924 -198 ct 982 -198 l  982 -205 l  982 -221 976 -232 963 -240 ct 
951 -247 932 -250 906 -250 ct 885 -250 865 -248 847 -244 ct 829 -240 812 -234 796 -225 ct 
796 -300 l  817 -305 839 -309 860 -312 ct 881 -315 902 -316 924 -316 ct 979 -316 1020 -305 1044 -283 ct 
1069 -261 1081 -225 1081 -176 ct p ef
1383 -264 m  1383 -429 l  1482 -429 l  1482 0 l  1383 0 l  1383 -45 l 
1370 -27 1355 -14 1338 -5 ct 1322 3 1303 8 1282 8 ct 1244 8 1212 -8 1188 -38 ct 
1164 -68 1151 -107 1151 -155 ct 1151 -202 1164 -241 1188 -271 ct 1212 -302 1244 -317 1282 -317 ct 
1303 -317 1322 -312 1338 -304 ct 1355 -295 1370 -282 1383 -264 ct p
1318 -64 m  1339 -64 1355 -72 1367 -87 ct 1378 -103 1383 -125 1383 -154 ct 1383 -184 1378 -206 1367 -222 ct 
1355 -237 1339 -245 1318 -245 ct 1297 -245 1281 -237 1270 -222 ct 1259 -206 1254 -184 1254 -154 ct 
1254 -125 1259 -103 1270 -87 ct 1281 -72 1297 -64 1318 -64 ct p ef
pom
gs
0.796 c 9320 12363 m  11012 12363 l  11012 13276 l  9320 13276 l  9320 12363 l 
p ef
gr
pum
10065 13015 t
28 -177 m  176 -177 l  176 -132 l  28 -132 l  28 -177 l  p ef
pom
gs
0.796 c 11012 12363 m  12674 12363 l  12674 13276 l  11012 13276 l  11012 12363 l 
p ef
gr
pum
11742 13015 t
28 -177 m  176 -177 l  176 -132 l  28 -132 l  28 -177 l  p ef
pom
gs
0.796 c 12674 12363 m  14304 12363 l  14304 13276 l  12674 13276 l  12674 12363 l 
p ef
gr
pum
12949 13015 t
70 -47 m  161 -47 l  161 -361 l  62 -341 l  62 -392 l  160 -412 l  216 -412 l 
216 -47 l  307 -47 l  307 0 l  70 0 l  70 -47 l  p ef
539 -375 m  511 -375 489 -361 475 -333 ct 460 -304 453 -262 453 -205 ct 453 -149 460 -107 475 -78 ct 
489 -50 511 -36 539 -36 ct 568 -36 590 -50 604 -78 ct 619 -107 626 -149 626 -205 ct 
626 -262 619 -304 604 -333 ct 590 -361 568 -375 539 -375 ct p
539 -419 m  585 -419 621 -401 645 -364 ct 669 -328 681 -275 681 -205 ct 681 -136 669 -83 645 -47 ct 
621 -10 585 8 539 8 ct 493 8 458 -10 434 -47 ct 409 -83 397 -136 397 -205 ct 397 -275 409 -328 434 -364 ct 
458 -401 493 -419 539 -419 ct p ef
899 -375 m  871 -375 849 -361 835 -333 ct 820 -304 813 -262 813 -205 ct 813 -149 820 -107 835 -78 ct 
849 -50 871 -36 899 -36 ct 928 -36 950 -50 964 -78 ct 979 -107 986 -149 986 -205 ct 
986 -262 979 -304 964 -333 ct 950 -361 928 -375 899 -375 ct p
899 -419 m  945 -419 981 -401 1005 -364 ct 1029 -328 1041 -275 1041 -205 ct 
1041 -136 1029 -83 1005 -47 ct 981 -10 945 8 899 8 ct 853 8 818 -10 794 -47 ct 
769 -83 757 -136 757 -205 ct 757 -275 769 -328 794 -364 ct 818 -401 853 -419 899 -419 ct 
p ef
pom
gs
1.75974 lw 1 lj 2199 9494 m  14303 9494 l  ps
gr
0 7680 t 
pom
count op_count sub {pop} repeat countdictstack dict_count sub {end} repeat b4_inc_state restore
%%PageTrailer
%%Trailer
%%EOF
